…
# An example of exploring a hypothetical what could count for resource area requirements
#coa_courses2 <- coa_courses2 %>%
  #mutate(course_counts = case_when(instructor_status %in% c("Permanent Teaching Staff", "Permanent full-time", "Permanent part-time")) ~ "Count",
        # TRUE ~ "Doesn't Count")
```

``` r
coa_courses3$Lab_Fee_USD <- as.numeric(gsub("[^0-9.]", "", coa_courses3$Lab_Fee_USD))

coa_courses3$Lab_Fee_USD[is.na(coa_courses3$Lab_Fee_USD)] <- 0

print(coa_courses3)
```

    ## # A tibble: 1,554 × 16
    ##    Department CourseNumber CourseDivision CourseName                  Instructor
    ##    <chr>      <chr>        <chr>          <chr>                       <chr>     
    ##  1 AD         1011         ADS            Introduction to Arts and D… Mancinell…
    ##  2 AD         1011         ADS            Introduction to Arts and D… Mancinell…
    ##  3 AD         1011         ADS            Introduction to Arts and D… Mancinell…
    ##  4 AD         1012         ADS            Introduction to Keyboard/P… Cooper, J…
    ##  5 AD         1012         ADS            Introduction to Keyboard/P… Cooper, J…
    ##  6 AD         1012         ADS            Introduction to Keyboard/P… Cooper, J…
    ##  7 AD         1013         AD HY          Jazz, Rock, and Blues:  Fr… Cooper, J…
    ##  8 AD         1013         AD HY          Jazz, Rock, and Blues:  Fr… Cooper, J…
    ##  9 AD         1013         AD HY          Jazz, Rock, and Blues:  Fr… Cooper, J…
    ## 10 AD         1013         AD HY          Jazz, Rock, and Blues:  Fr… Cooper, J…
    ## # ℹ 1,544 more rows
    ## # ℹ 11 more variables: CourseDescription <chr>, ActiveFlag <lgl>,
    ## #   Semester <chr>, Year <dbl>, Term <chr>, Level <chr>, Prerequisites <chr>,
    ## #   Lab_Fee_USD <dbl>, Class_Size <chr>, Degree_Requirements <chr>,
    ## #   instructor_status <chr>
…
